<svg width="512" height="512" xmlns="http://www.w3.org/2000/svg">
 <g>
  <title>Layer 1</title>
  <polygon fill="#879dac" id="svg_1" points="396.6,160 416,180.7 256,352 96,180.7 115.3,160 256,310.5 "/>
 </g>
</svg>